Title	Description	Qualifications	Qualificiations										Effect	Effect on Strategy Qualifications									
			Economy Min	Economy Max	Life Min	Life Max	Edu Min	Edu Max	Approval Min	Approval Max	Crime Min	Crime Max		Economy Min Change	Economy Max Change	Life Min Change	Life Max	Edu Min	Edu Max	Approval Min	Approval Max	Crime Min	Crime Max
Eat the Rich	Anything that helps the wealthy is wrong for America		NULL	NULL	0.7	0.7	0.3	0.1	0.7	0.7	0.8	0.4		0.1	0.2	0.2	0.4	0.1	0.1	NULL	NULL	0.1	0.4
Global Warming is a Hoax	If Global Warming is real how come it still snows?		0.7	0.1	0.5	0.1	0.4	0.6	0.5	0.1	0.7	0.5		NULL	NULL	0.2	0.2	0.2	0	0.1	0.4	NULL	NULL
F the Poor	They should just work harder.		0.5	0.5	0.3	0.8	0.9	0.5	NULL	NULL	0.5	1		0.2	0.1	0	0.2	NULL	NULL	0	0.4	NULL	NULL
The Old are a Burden	The Elderly hold Society Back		0.6	0.7	NULL	NULL	0.2	0.5	0.4	0.5	NULL	NULL		0.2	0.2	0.2	0	NULL	NULL	0	0.5	0.2	0.1
Just Be Healthy	No need to pay for other people's weaknesses		NULL	NULL	0.7	1	0.3	0.6	NULL	NULL	0.6	0.1		0.2	0.1	NULL	NULL	NULL	NULL	0.2	0	0.2	0.1
Protecting Privacy	Don't let the government spy on innocent citizens		NULL	NULL	0.8	0.9	0.6	0.1	NULL	NULL	0.3	0.2		0	0.1	NULL	NULL	0.1	0.1	NULL	NULL	0.2	0.2
420 Blaze It	Legalize, not penalize.		0.1	0.7	0.7	0.7	0.2	0	NULL	NULL	0.5	0		0.1	0.5	0.2	0.5	0.1	0.3	0	0.1	0.1	0.1
Oligopolist	The bigger the company, the more efficent it is		0.9	0.1	0.6	0.4	NULL	NULL	0.1	0.3	0.5	0.1		NULL	NULL	0.2	0.5	0.1	0.3	0	0.1	NULL	NULL
Technology is a Curse	Tech bad.		0.4	1	NULL	NULL	0.3	0.8	0.1	0.1	0.2	0.5		0	0.5	NULL	NULL	NULL	NULL	0.2	0.2	NULL	NULL
Solar is the Future	Coal is limited, Solar is (realistically) forever.		0.4	0.5	NULL	NULL	0.9	0.3	0.8	0.9	0.7	0.1		0.1	0	0.1	0.1	0.1	0.4	0.2	0.4	0.1	0.2
No More Nukes	Nuking people is not necessarily the best route.		NULL	NULL	NULL	NULL	0.4	0.6	0.1	0.8	0.3	0.3		NULL	NULL	0.2	0.2	NULL	NULL	0.2	0.1	0.2	0.2
Home Schooled Nation	Why should the government get to decide what's in kids heads?		NULL	NULL	0.2	0.2	0.2	0.1	NULL	NULL	0.4	0.2		0.1	0.2	NULL	NULL	0.2	0.2	0.1	0.2	0.1	0.3
Peace and Love	Violence is bad dude.		NULL	NULL	0.4	0.3	0	0.3	0.1	0.8	0.6	0.3		0.2	0.5	0.2	0.2	0	0.1	NULL	NULL	0.2	0.1