Title	Description	Qualificiations										Recipe Metrics					Recipe Resources				End Result Metric					End Result Resources			
		Economy Min	Economy Max	Life Min	Life Max	Edu Min	Edu Max	Approval Min	Approval Max	Crime Min	Crime Max	Economy	Life Quality	Education	Approval	Crime	Industry	Propaganda	Welfare	Military	Economy Change	Life Quality Change	Education Change	Approval Change	Crime Change	Industry Change	Propaganda Change	Welfare Change	Military Change
Reaganomics	Helps the rich to eventually help the poor.	0.1	0.9	0.5	0.5	0.8	0.9	NULL	NULL	NULL	NULL	NULL	0.07	0.05	NULL	0.01	NULL	2	9	NULL	NULL	0.08	0.07	NULL	0.01	NULL	3	14	NULL
Green New Deal	Reduce Carbon Emissions as soon as possible.	0.1	0.6	0.6	0.8	1	1	0.4	0.9	0.2	0.8	0.09	0	NULL	0.02	NULL	4	NULL	8	9	0.09	0	NULL	0.02	NULL	6	NULL	12	14
Affordable Care Act	Everyone needs health insurance. 	NULL	NULL	NULL	NULL	0.7	0.9	NULL	NULL	NULL	NULL	NULL	NULL	0.07	NULL	0.03	NULL	NULL	6	NULL	NULL	NULL	0.09	NULL	0.04	NULL	NULL	9	NULL
Medicaid	Supporting the poor of the planet.	0.3	0.9	0.2	0.5	NULL	NULL	NULL	NULL	0.3	1	NULL	NULL	NULL	0.09	0.05	3	8	NULL	1	NULL	NULL	NULL	0.1	0.07	5	12	NULL	2
Medicare	Supporting the elders of the planet.	0.7	0.9	0.4	0.9	0.2	0.7	0.4	0.9	NULL	NULL	0.09	0.04	0.08	0	NULL	NULL	NULL	NULL	7	0.13	0.05	0.08	0	NULL	NULL	NULL	NULL	11
War on Terror	Someone's got to fight those terrorists.	0.5	1	0.5	1	0.7	1	0.5	0.9	NULL	NULL	NULL	0.01	0.07	0.01	NULL	NULL	1	3	4	NULL	0.01	0.1	0.01	NULL	NULL	2	5	6
War on Drugs	Keeping drugs out of the homes and hands of our planet.	NULL	NULL	NULL	NULL	NULL	NULL	NULL	NULL	0.9	1	0.09	0.06	0.05	0	NULL	NULL	1	NULL	NULL	0.09	0.07	0.07	0	NULL	NULL	2	NULL	NULL
Small Businesses	They are the backbone of our economy.	0.5	0.6	NULL	NULL	0.8	0.9	0.2	0.9	0.5	0.7	0.08	NULL	NULL	NULL	NULL	6	7	NULL	1	0.11	NULL	NULL	NULL	NULL	9	11	NULL	2
Highway System	Connecting the planet one road at a time.	0.6	0.9	NULL	NULL	NULL	NULL	0.8	0.9	0	1	NULL	0.05	0.03	0.02	NULL	9	7	NULL	NULL	NULL	0.06	0.04	0.03	NULL	14	11	NULL	NULL
Save the Coal Industry	Because that's what people want. 	NULL	NULL	NULL	NULL	0.5	1	0.4	0.7	0.3	1	0.08	0.02	0.05	NULL	0.03	9	7	2	NULL	0.1	0.03	0.05	NULL	0.04	14	11	3	NULL
Clean Slate Diplomacy	Nuke rebels.	0.7	0.8	0.2	1	0.7	0.8	0.5	0.8	NULL	NULL	0.09	NULL	0.04	0.01	0.09	6	8	9	0	0.1	NULL	0.04	0.01	0.11	9	12	14	0
Electric Grid	No matter where they are on the globe, they will have access to electricity.	0.3	0.4	0.1	0.7	NULL	NULL	NULL	NULL	NULL	NULL	NULL	0.07	NULL	NULL	NULL	8	NULL	NULL	NULL	NULL	0.1	NULL	NULL	NULL	12	NULL	NULL	NULL
Standardized Education	Sets a minimum standard for the education of the population	NULL	NULL	0.5	0.8	0.4	0.9	NULL	NULL	0.5	0.9	0.03	0.08	NULL	0.1	0.04	2	1	3	6	0.04	0.08	NULL	0.14	0.06	3	2	5	9
Military Industrial Complex	Who's the enemy? Doesn't matter, build up that military!	0.2	0.5	0.7	0.9	0.3	0.6	NULL	NULL	0.7	0.9	0.02	0.09	NULL	0.09	0.08	8	NULL	NULL	NULL	0.02	0.11	#VALUE!	0.11	0.09	12	NULL	NULL	NULL